perm_engine/self.log
/apps/synopsys/VCSMX_NEW/bin/vcs

Warning-[LNX_OS_VERUN] Unsupported Linux version
  Linux version 'CentOS Linux release 7.8.2003 (Core)' is not supported on 
  'x86_64' officially, assuming linux compatibility by default. Set 
  VCS_ARCH_OVERRIDE to linux or suse32 to override.
  Please refer to release notes for information on supported platforms.


Warning-[LINX_KRNL] Unsupported Linux kernel
  Linux kernel '3.10.0-1127.8.2.el7.x86_64' is not supported.
  Supported versions are 2.4* or 2.6*.

                         Chronologic VCS (TM)
           Version I-2014.03-2 -- Fri Sep 25 17:58:39 2020
               Copyright (c) 1991-2014 by Synopsys Inc.
                         ALL RIGHTS RESERVED

This program is proprietary and confidential information of Synopsys Inc.
and may be used and disclosed only as authorized in a license agreement
controlling such use and disclosure.

Parsing design file 'tb_self.sv'
Parsing included file 'perm.sv'.

Warning-[CIWC] Ignored /* within /* */ comment
  Nested comments is found. Ignoring nested '/*'. 
  /*			
  ^
  "perm.sv", 980

Back to file 'tb_self.sv'.
Parsing included file 'm55.sv'.
Back to file 'tb_self.sv'.
Top Level Modules:
       tb_self
TimeScale is 1 ns / 10 ps
Starting vcs inline pass...
3 modules and 0 UDP read.
	However, due to incremental compilation, only 1 module needs to be compiled.
recompiling module tb_self because:
	This module or some inlined child module(s) has/have been modified.
rm -f _csrc*.so linux_scvhdl_*.so pre_vcsobj_*.so share_vcsobj_*.so
ld -m elf_i386 -shared -o .//../simv.daidir//_csrc1.so --whole-archive _vcsobj_1_1.a  --no-whole-archive
ld -m elf_i386 -shared -o .//../simv.daidir//_csrc0.so 5NrI_d.o 5NrIB_d.o SIM_l.o  
ld -m elf_i386 -shared -o .//../simv.daidir//pre_vcsobj_1_1.so --whole-archive pre_vcsobj_1_1.a --no-whole-archive
ld -m elf_i386 -shared -o .//../simv.daidir//pre_vcsobj_1_2.so --whole-archive pre_vcsobj_1_2.a --no-whole-archive
if [ -x ../simv ]; then chmod -x ../simv; fi
g++  -o ../simv  -m32 -m32   -Wl,-rpath-link=./ -Wl,-rpath='$ORIGIN'/simv.daidir/ -Wl,-rpath='$ORIGIN'/simv.daidir//scsim.db.dir  _csrc1.so _csrc0.so   pre_vcsobj_1_1.so pre_vcsobj_1_2.so  rmapats_mop.o rmapats.o rmar.o           /apps/synopsys/VCSMX_NEW/linux/lib/libzerosoft_rt_stubs.so /apps/synopsys/VCSMX_NEW/linux/lib/libvirsim.so /apps/synopsys/VCSMX_NEW/linux/lib/librterrorinf.so /apps/synopsys/VCSMX_NEW/linux/lib/libsnpsmalloc.so    /apps/synopsys/VCSMX_NEW/linux/lib/libvcsnew.so /apps/synopsys/VCSMX_NEW/linux/lib/libuclinative.so   -Wl,-whole-archive /apps/synopsys/VCSMX_NEW/linux/lib/libvcsucli.so -Wl,-no-whole-archive          /apps/synopsys/VCSMX_NEW/linux/lib/vcs_save_restore_new.o /apps/synopsys/VCSMX_NEW/linux/lib/ctype-stubs_32.a -ldl  -lc -lm -lpthread -ldl 
../simv up to date
CPU time: .171 seconds to compile + .025 seconds to elab + .139 seconds to link
Chronologic VCS simulator copyright 1991-2014
Contains Synopsys proprietary information.
Compiler version I-2014.03-2; Runtime version I-2014.03-2;  Sep 25 17:58 2020
                 241Done 25 locations!m1wx:100,m1wy:100
                 250Done 25 locations!m1wx:100,m1wy:100
perm reset state
perm reset state
D:0000000a1ea5a6a3,m3wy:1,m3wx:0
D:0000000000000001,m3wy:1,m3wx:0
D:0000000000000001,m3wy:1,m3wx:1
D:000000060a636261,m3wy:1,m3wx:1
D:000000060a636261,m3wy:1,m3wx:2
D:8000000000000000,m3wy:1,m3wx:2
D:8000000000000000,m3wy:1,m3wx:3
D:0000000000000000,m3wy:1,m3wx:3
D:0000000000000000,m3wy:1,m3wx:4
D:0000000c14c6c4c2,m3wy:1,m3wx:4
donetheta
donetheta
round: 0cmx[round]:0000000000000001,r1_d:0000000000000000,m3wd:0000000000000001,m3wx;0,m3wy;0
round: 0cmx[round]:0000000000000001,r1_d:000004060a636260,m3wd:000004060a636261,m3wx;0,m3wy;0
copym3m1:m1wd:000004060a636261,m3rd:000004060a636261 m1wx:0,m1wy:0
copym3m1:m1wd:000004060a636261,m3rd:000004060a636261 m1wx:0,m1wy:1
copym3m1:m1wd:0000000000000008,m3rd:0000000000000008 m1wx:0,m1wy:1
copym3m1:m1wd:0000000000000008,m3rd:0000000000000008 m1wx:0,m1wy:2
copym3m1:m1wd:0000000c14c6c4c2,m3rd:0000000c14c6c4c2 m1wx:0,m1wy:2
copym3m1:m1wd:0000000c14c6c4c2,m3rd:0000000c14c6c4c2 m1wx:0,m1wy:3
copym3m1:m1wd:60a62e0f9d898400,m3rd:60a62e0f9d898400 m1wx:0,m1wy:3
copym3m1:m1wd:60a62e0f9d898400,m3rd:60a62e0f9d898400 m1wx:0,m1wy:4
copym3m1:m1wd:436261000000060a,m3rd:436261000000060a m1wx:0,m1wy:4
copym3m1:m1wd:436261000000060a,m3rd:436261000000060a m1wx:1,m1wy:0
copym3m1:m1wd:36261000000060a6,m3rd:36261000000060a6 m1wx:1,m1wy:0
copym3m1:m1wd:36261000000060a6,m3rd:36261000000060a6 m1wx:1,m1wy:1
copym3m1:m1wd:6c8d7c6c4c20c144,m3rd:6c8d7c6c4c20c144 m1wx:1,m1wy:1
copym3m1:m1wd:6c8d7c6c4c20c144,m3rd:6c8d7c6c4c20c144 m1wx:1,m1wy:2
copym3m1:m1wd:00000c14c6c4c220,m3rd:00000c14c6c4c220 m1wx:1,m1wy:2
copym3m1:m1wd:00000c14c6c4c220,m3rd:00000c14c6c4c220 m1wx:1,m1wy:3
copym3m1:m1wd:0000001000004000,m3rd:0000001000004000 m1wx:1,m1wy:3
copym3m1:m1wd:0000001000004000,m3rd:0000001000004000 m1wx:1,m1wy:4
copym3m1:m1wd:0000020000000000,m3rd:0000020000000000 m1wx:1,m1wy:4
copym3m1:m1wd:0000020000000000,m3rd:0000020000000000 m1wx:2,m1wy:0
copym3m1:m1wd:00030131b1308000,m3rd:00030131b1308000 m1wx:2,m1wy:0
copym3m1:m1wd:00030131b1308000,m3rd:00030131b1308000 m1wx:2,m1wy:1
copym3m1:m1wd:1000000000000008,m3rd:1000000000000008 m1wx:2,m1wy:1
copym3m1:m1wd:1000000000000008,m3rd:1000000000000008 m1wx:2,m1wy:2
copym3m1:m1wd:0000000000000000,m3rd:0000000000000000 m1wx:2,m1wy:2
copym3m1:m1wd:0000000000000000,m3rd:0000000000000000 m1wx:2,m1wy:3
copym3m1:m1wd:000018298d898400,m3rd:000018298d898400 m1wx:2,m1wy:3
copym3m1:m1wd:000018298d898400,m3rd:000018298d898400 m1wx:2,m1wy:4
copym3m1:m1wd:63626118298d8f8e,m3rd:63626118298d8f8e m1wx:2,m1wy:4
copym3m1:m1wd:63626118298d8f8e,m3rd:63626118298d8f8e m1wx:3,m1wy:0
copym3m1:m1wd:000000060a436260,m3rd:000000060a436260 m1wx:3,m1wy:0
copym3m1:m1wd:000000060a436260,m3rd:000000060a436260 m1wx:3,m1wy:1
copym3m1:m1wd:6c4c30000000c14c,m3rd:6c4c30000000c14c m1wx:3,m1wy:1
copym3m1:m1wd:6c4c30000000c14c,m3rd:6c4c30000000c14c m1wx:3,m1wy:2
copym3m1:m1wd:00000c18d20606c2,m3rd:00000c18d20606c2 m1wx:3,m1wy:2
copym3m1:m1wd:00000c18d20606c2,m3rd:00000c18d20606c2 m1wx:3,m1wy:3
copym3m1:m1wd:60a6362610004000,m3rd:60a6362610004000 m1wx:3,m1wy:3
copym3m1:m1wd:60a6362610004000,m3rd:60a6362610004000 m1wx:3,m1wy:4
copym3m1:m1wd:2000020000000000,m3rd:2000020000000000 m1wx:3,m1wy:4
copym3m1:m1wd:2000020000000000,m3rd:2000020000000000 m1wx:4,m1wy:0
copym3m1:m1wd:36251531b1308086,m3rd:36251531b1308086 m1wx:4,m1wy:0
copym3m1:m1wd:36251531b1308086,m3rd:36251531b1308086 m1wx:4,m1wy:1
copym3m1:m1wd:10c14c6c4c200000,m3rd:10c14c6c4c200000 m1wx:4,m1wy:1
copym3m1:m1wd:10c14c6c4c200000,m3rd:10c14c6c4c200000 m1wx:4,m1wy:2
copym3m1:m1wd:0000000000040020,m3rd:0000000000040020 m1wx:4,m1wy:2
copym3m1:m1wd:0000000000040020,m3rd:0000000000040020 m1wx:4,m1wy:3
copym3m1:m1wd:0000001000000000,m3rd:0000001000000000 m1wx:4,m1wy:3
copym3m1:m1wd:0000001000000000,m3rd:0000001000000000 m1wx:4,m1wy:4
copym3m1:m1wd:00000018298d8984,m3rd:00000018298d8984 m1wx:4,m1wy:4
D:644cdd0e85746de3,m3wy:1,m3wx:0
D:93b29d84c1514ea6,m3wy:1,m3wx:0
D:93b29d84c1514ea6,m3wy:1,m3wx:1
D:c506bb05a94533ad,m3wy:1,m3wx:1
D:c506bb05a94533ad,m3wy:1,m3wx:2
D:037f72191a6fe81e,m3wy:1,m3wx:2
D:037f72191a6fe81e,m3wy:1,m3wx:3
D:3ea9caabbc0699c2,m3wy:1,m3wx:3
D:3ea9caabbc0699c2,m3wy:1,m3wx:4
D:6b629e33ce1dacac,m3wy:1,m3wx:4
donetheta
donetheta
round: 1cmx[round]:0000000000008082,r1_d:4720623555080128,m3wd:47206235550881aa,m3wx;0,m3wy;0
round: 1cmx[round]:0000000000008082,r1_d:b3f2f98188b26c46,m3wd:b3f2f98188b2ecc4,m3wx;0,m3wy;0
copym3m1:m1wd:b3f2f98188b2ecc4,m3rd:b3f2f98188b2ecc4 m1wx:0,m1wy:0
copym3m1:m1wd:b3f2f98188b2ecc4,m3rd:b3f2f98188b2ecc4 m1wx:0,m1wy:1
copym3m1:m1wd:436093be07d2ddaa,m3rd:436093be07d2ddaa m1wx:0,m1wy:1
copym3m1:m1wd:436093be07d2ddaa,m3rd:436093be07d2ddaa m1wx:0,m1wy:2
copym3m1:m1wd:c6415733528ff41e,m3rd:c6415733528ff41e m1wx:0,m1wy:2
copym3m1:m1wd:c6415733528ff41e,m3rd:c6415733528ff41e m1wx:0,m1wy:3
copym3m1:m1wd:19316c77562c1b48,m3rd:19316c77562c1b48 m1wx:0,m1wy:3
copym3m1:m1wd:19316c77562c1b48,m3rd:19316c77562c1b48 m1wx:0,m1wy:4
copym3m1:m1wd:880918ca8ad6c2c4,m3rd:880918ca8ad6c2c4 m1wx:0,m1wy:4
copym3m1:m1wd:880918ca8ad6c2c4,m3rd:880918ca8ad6c2c4 m1wx:1,m1wy:0
copym3m1:m1wd:df9b9a58bc3d9f7a,m3rd:df9b9a58bc3d9f7a m1wx:1,m1wy:0
copym3m1:m1wd:df9b9a58bc3d9f7a,m3rd:df9b9a58bc3d9f7a m1wx:1,m1wy:1
copym3m1:m1wd:0799337a99851e35,m3rd:0799337a99851e35 m1wx:1,m1wy:1
copym3m1:m1wd:0799337a99851e35,m3rd:0799337a99851e35 m1wx:1,m1wy:2
copym3m1:m1wd:dfdea486867aa9e6,m3rd:dfdea486867aa9e6 m1wx:1,m1wy:2
copym3m1:m1wd:dfdea486867aa9e6,m3rd:dfdea486867aa9e6 m1wx:1,m1wy:3
copym3m1:m1wd:b014e0a80b20d8e7,m3rd:b014e0a80b20d8e7 m1wx:1,m1wy:3
copym3m1:m1wd:b014e0a80b20d8e7,m3rd:b014e0a80b20d8e7 m1wx:1,m1wy:4
copym3m1:m1wd:f6287b3f5dfe0534,m3rd:f6287b3f5dfe0534 m1wx:1,m1wy:4
copym3m1:m1wd:f6287b3f5dfe0534,m3rd:f6287b3f5dfe0534 m1wx:2,m1wy:0
copym3m1:m1wd:594a893ffa90d2d3,m3rd:594a893ffa90d2d3 m1wx:2,m1wy:0
copym3m1:m1wd:594a893ffa90d2d3,m3rd:594a893ffa90d2d3 m1wx:2,m1wy:1
copym3m1:m1wd:9d96ee068ca01bf6,m3rd:9d96ee068ca01bf6 m1wx:2,m1wy:1
copym3m1:m1wd:9d96ee068ca01bf6,m3rd:9d96ee068ca01bf6 m1wx:2,m1wy:2
copym3m1:m1wd:f6dd053f226e108d,m3rd:f6dd053f226e108d m1wx:2,m1wy:2
copym3m1:m1wd:f6dd053f226e108d,m3rd:f6dd053f226e108d m1wx:2,m1wy:3
copym3m1:m1wd:58dae5b68e763114,m3rd:58dae5b68e763114 m1wx:2,m1wy:3
copym3m1:m1wd:58dae5b68e763114,m3rd:58dae5b68e763114 m1wx:2,m1wy:4
copym3m1:m1wd:08dce625355fd1e1,m3rd:08dce625355fd1e1 m1wx:2,m1wy:4
copym3m1:m1wd:08dce625355fd1e1,m3rd:08dce625355fd1e1 m1wx:3,m1wy:0
copym3m1:m1wd:818580d9fa7be5f8,m3rd:818580d9fa7be5f8 m1wx:3,m1wy:0
copym3m1:m1wd:818580d9fa7be5f8,m3rd:818580d9fa7be5f8 m1wx:3,m1wy:1
copym3m1:m1wd:7d11e53ad6e02520,m3rd:7d11e53ad6e02520 m1wx:3,m1wy:1
copym3m1:m1wd:7d11e53ad6e02520,m3rd:7d11e53ad6e02520 m1wx:3,m1wy:2
copym3m1:m1wd:66de71c44da4087f,m3rd:66de71c44da4087f m1wx:3,m1wy:2
copym3m1:m1wd:66de71c44da4087f,m3rd:66de71c44da4087f m1wx:3,m1wy:3
copym3m1:m1wd:a4f90bd2664d39ff,m3rd:a4f90bd2664d39ff m1wx:3,m1wy:3
copym3m1:m1wd:a4f90bd2664d39ff,m3rd:a4f90bd2664d39ff m1wx:3,m1wy:4
copym3m1:m1wd:3150552e23a406b9,m3rd:3150552e23a406b9 m1wx:3,m1wy:4
copym3m1:m1wd:3150552e23a406b9,m3rd:3150552e23a406b9 m1wx:4,m1wy:0
copym3m1:m1wd:eb86fbfc3d0e88c8,m3rd:eb86fbfc3d0e88c8 m1wx:4,m1wy:0
copym3m1:m1wd:eb86fbfc3d0e88c8,m3rd:eb86fbfc3d0e88c8 m1wx:4,m1wy:1
copym3m1:m1wd:289b8220ee796ee7,m3rd:289b8220ee796ee7 m1wx:4,m1wy:1
copym3m1:m1wd:289b8220ee796ee7,m3rd:289b8220ee796ee7 m1wx:4,m1wy:2
copym3m1:m1wd:eb8f8501abc342c3,m3rd:eb8f8501abc342c3 m1wx:4,m1wy:2
copym3m1:m1wd:eb8f8501abc342c3,m3rd:eb8f8501abc342c3 m1wx:4,m1wy:3
copym3m1:m1wd:c61a2b4082bdc69d,m3rd:c61a2b4082bdc69d m1wx:4,m1wy:3
copym3m1:m1wd:c61a2b4082bdc69d,m3rd:c61a2b4082bdc69d m1wx:4,m1wy:4
copym3m1:m1wd:533a8623f01ccf9f,m3rd:533a8623f01ccf9f m1wx:4,m1wy:4
D:e83ddad3033f2505,m3wy:1,m3wx:0
D:3e737dd9e02c471a,m3wy:1,m3wx:0
D:3e737dd9e02c471a,m3wy:1,m3wx:1
D:63e58a9adffb6e46,m3wy:1,m3wx:1
D:63e58a9adffb6e46,m3wy:1,m3wx:2
D:5e260385bcb11ab8,m3wy:1,m3wx:2
D:5e260385bcb11ab8,m3wy:1,m3wx:3
D:1963c2e9fb5c6280,m3wy:1,m3wx:3
D:1963c2e9fb5c6280,m3wy:1,m3wx:4
D:4035d9b926fcce18,m3wy:1,m3wx:4
donetheta
donetheta
round: 2cmx[round]:800000000000808a,r1_d:1020191168168c21,m3wd:9020191168160cab,m3wx;0,m3wy;0
round: 2cmx[round]:800000000000808a,r1_d:95d10d5878bf7b4e,m3wd:15d10d5878bffbc4,m3wx;0,m3wy;0
copym3m1:m1wd:15d10d5878bffbc4,m3rd:15d10d5878bffbc4 m1wx:0,m1wy:0
copym3m1:m1wd:15d10d5878bffbc4,m3rd:15d10d5878bffbc4 m1wx:0,m1wy:1
copym3m1:m1wd:40132f7219877421,m3rd:40132f7219877421 m1wx:0,m1wy:1
copym3m1:m1wd:40132f7219877421,m3rd:40132f7219877421 m1wx:0,m1wy:2
copym3m1:m1wd:6bb8b1953d32ca3f,m3rd:6bb8b1953d32ca3f m1wx:0,m1wy:2
copym3m1:m1wd:6bb8b1953d32ca3f,m3rd:6bb8b1953d32ca3f m1wx:0,m1wy:3
copym3m1:m1wd:a8cfc256835d9992,m3rd:a8cfc256835d9992 m1wx:0,m1wy:3
copym3m1:m1wd:a8cfc256835d9992,m3rd:a8cfc256835d9992 m1wx:0,m1wy:4
copym3m1:m1wd:ce1f666a85a0725e,m3rd:ce1f666a85a0725e m1wx:0,m1wy:4
copym3m1:m1wd:ce1f666a85a0725e,m3rd:ce1f666a85a0725e m1wx:1,m1wy:0
copym3m1:m1wd:e025346fec5c276e,m3rd:e025346fec5c276e m1wx:1,m1wy:0
copym3m1:m1wd:e025346fec5c276e,m3rd:e025346fec5c276e m1wx:1,m1wy:1
copym3m1:m1wd:8fd8a07027b4c87d,m3rd:8fd8a07027b4c87d m1wx:1,m1wy:1
copym3m1:m1wd:8fd8a07027b4c87d,m3rd:8fd8a07027b4c87d m1wx:1,m1wy:2
copym3m1:m1wd:c8a969ec0540d730,m3rd:c8a969ec0540d730 m1wx:1,m1wy:2
copym3m1:m1wd:c8a969ec0540d730,m3rd:c8a969ec0540d730 m1wx:1,m1wy:3
copym3m1:m1wd:6ce8230641fee770,m3rd:6ce8230641fee770 m1wx:1,m1wy:3
copym3m1:m1wd:6ce8230641fee770,m3rd:6ce8230641fee770 m1wx:1,m1wy:4
copym3m1:m1wd:d00ab919e997df0b,m3rd:d00ab919e997df0b m1wx:1,m1wy:4
copym3m1:m1wd:d00ab919e997df0b,m3rd:d00ab919e997df0b m1wx:2,m1wy:0
copym3m1:m1wd:28d5b8d7d8359074,m3rd:28d5b8d7d8359074 m1wx:2,m1wy:0
copym3m1:m1wd:28d5b8d7d8359074,m3rd:28d5b8d7d8359074 m1wx:2,m1wy:1
copym3m1:m1wd:c99a13d585241947,m3rd:c99a13d585241947 m1wx:2,m1wy:1
copym3m1:m1wd:c99a13d585241947,m3rd:c99a13d585241947 m1wx:2,m1wy:2
copym3m1:m1wd:cb60f29fe88d230f,m3rd:cb60f29fe88d230f m1wx:2,m1wy:2
copym3m1:m1wd:cb60f29fe88d230f,m3rd:cb60f29fe88d230f m1wx:2,m1wy:3
copym3m1:m1wd:e49853f245167af0,m3rd:e49853f245167af0 m1wx:2,m1wy:3
copym3m1:m1wd:e49853f245167af0,m3rd:e49853f245167af0 m1wx:2,m1wy:4
copym3m1:m1wd:c8c12f45d53afcc4,m3rd:c8c12f45d53afcc4 m1wx:2,m1wy:4
copym3m1:m1wd:c8c12f45d53afcc4,m3rd:c8c12f45d53afcc4 m1wx:3,m1wy:0
copym3m1:m1wd:2f72a26b07699845,m3rd:2f72a26b07699845 m1wx:3,m1wy:0
copym3m1:m1wd:2f72a26b07699845,m3rd:2f72a26b07699845 m1wx:3,m1wy:1
copym3m1:m1wd:76d41a3da5c47e9b,m3rd:76d41a3da5c47e9b m1wx:3,m1wy:1
copym3m1:m1wd:76d41a3da5c47e9b,m3rd:76d41a3da5c47e9b m1wx:3,m1wy:2
copym3m1:m1wd:4742f9a0818da796,m3rd:4742f9a0818da796 m1wx:3,m1wy:2
copym3m1:m1wd:4742f9a0818da796,m3rd:4742f9a0818da796 m1wx:3,m1wy:3
copym3m1:m1wd:73ce194395d3026c,m3rd:73ce194395d3026c m1wx:3,m1wy:3
copym3m1:m1wd:73ce194395d3026c,m3rd:73ce194395d3026c m1wx:3,m1wy:4
copym3m1:m1wd:8070846615ab0f7c,m3rd:8070846615ab0f7c m1wx:3,m1wy:4
copym3m1:m1wd:8070846615ab0f7c,m3rd:8070846615ab0f7c m1wx:4,m1wy:0
copym3m1:m1wd:b5e087bf8361c0e2,m3rd:b5e087bf8361c0e2 m1wx:4,m1wy:0
copym3m1:m1wd:b5e087bf8361c0e2,m3rd:b5e087bf8361c0e2 m1wx:4,m1wy:1
copym3m1:m1wd:9353dcbc174d53af,m3rd:9353dcbc174d53af m1wx:4,m1wy:1
copym3m1:m1wd:9353dcbc174d53af,m3rd:9353dcbc174d53af m1wx:4,m1wy:2
copym3m1:m1wd:104eeba2173ac869,m3rd:104eeba2173ac869 m1wx:4,m1wy:2
copym3m1:m1wd:104eeba2173ac869,m3rd:104eeba2173ac869 m1wx:4,m1wy:3
copym3m1:m1wd:6e081a9697fa9e08,m3rd:6e081a9697fa9e08 m1wx:4,m1wy:3
copym3m1:m1wd:6e081a9697fa9e08,m3rd:6e081a9697fa9e08 m1wx:4,m1wy:4
copym3m1:m1wd:4717df87600321eb,m3rd:4717df87600321eb m1wx:4,m1wy:4
D:e9fe5885ef18f23a,m3wy:1,m3wx:0
D:288eba68b96de477,m3wy:1,m3wx:0
D:288eba68b96de477,m3wy:1,m3wx:1
D:54467dd71197f606,m3wy:1,m3wx:1
D:54467dd71197f606,m3wy:1,m3wx:2
D:c103de4b207198e9,m3wy:1,m3wx:2
D:c103de4b207198e9,m3wy:1,m3wx:3
D:39b2ce4acc6fe586,m3wy:1,m3wx:3
D:39b2ce4acc6fe586,m3wy:1,m3wx:4
D:5c0eb3d516b71074,m3wy:1,m3wx:4
donetheta
donetheta
round: 3cmx[round]:8000000080008000,r1_d:8482224801a4d5c8,m3wd:0482224881a455c8,m3wx;0,m3wy;0
round: 3cmx[round]:8000000080008000,r1_d:f947b772d1f69bb6,m3wd:7947b77251f61bb6,m3wx;0,m3wy;0
copym3m1:m1wd:7947b77251f61bb6,m3rd:7947b77251f61bb6 m1wx:0,m1wy:0
copym3m1:m1wd:7947b77251f61bb6,m3rd:7947b77251f61bb6 m1wx:0,m1wy:1
copym3m1:m1wd:15902794332d04c2,m3rd:15902794332d04c2 m1wx:0,m1wy:1
copym3m1:m1wd:15902794332d04c2,m3rd:15902794332d04c2 m1wx:0,m1wy:2
copym3m1:m1wd:b84e1375db0a22bc,m3rd:b84e1375db0a22bc m1wx:0,m1wy:2
copym3m1:m1wd:b84e1375db0a22bc,m3rd:b84e1375db0a22bc m1wx:0,m1wy:3
copym3m1:m1wd:e4fe5e95e34bfbf2,m3rd:e4fe5e95e34bfbf2 m1wx:0,m1wy:3
copym3m1:m1wd:e4fe5e95e34bfbf2,m3rd:e4fe5e95e34bfbf2 m1wx:0,m1wy:4
copym3m1:m1wd:3a3d95233e192827,m3rd:3a3d95233e192827 m1wx:0,m1wy:4
copym3m1:m1wd:3a3d95233e192827,m3rd:3a3d95233e192827 m1wx:1,m1wy:0
copym3m1:m1wd:33c7ba3509d33afa,m3rd:33c7ba3509d33afa m1wx:1,m1wy:0
copym3m1:m1wd:33c7ba3509d33afa,m3rd:33c7ba3509d33afa m1wx:1,m1wy:1
copym3m1:m1wd:d49e9fb5f4befddb,m3rd:d49e9fb5f4befddb m1wx:1,m1wy:1
copym3m1:m1wd:d49e9fb5f4befddb,m3rd:d49e9fb5f4befddb m1wx:1,m1wy:2
copym3m1:m1wd:245364a818627792,m3rd:245364a818627792 m1wx:1,m1wy:2
copym3m1:m1wd:245364a818627792,m3rd:245364a818627792 m1wx:1,m1wy:3
copym3m1:m1wd:4c2517c628d15126,m3rd:4c2517c628d15126 m1wx:1,m1wy:3
copym3m1:m1wd:4c2517c628d15126,m3rd:4c2517c628d15126 m1wx:1,m1wy:4
copym3m1:m1wd:aeb4726ab96491b9,m3rd:aeb4726ab96491b9 m1wx:1,m1wy:4
copym3m1:m1wd:aeb4726ab96491b9,m3rd:aeb4726ab96491b9 m1wx:2,m1wy:0
copym3m1:m1wd:ffcbb87219402603,m3rd:ffcbb87219402603 m1wx:2,m1wy:0
copym3m1:m1wd:ffcbb87219402603,m3rd:ffcbb87219402603 m1wx:2,m1wy:1
copym3m1:m1wd:98a047cc36d836c2,m3rd:98a047cc36d836c2 m1wx:2,m1wy:1
copym3m1:m1wd:98a047cc36d836c2,m3rd:98a047cc36d836c2 m1wx:2,m1wy:2
copym3m1:m1wd:a49b74b230dc622a,m3rd:a49b74b230dc622a m1wx:2,m1wy:2
copym3m1:m1wd:a49b74b230dc622a,m3rd:a49b74b230dc622a m1wx:2,m1wy:3
copym3m1:m1wd:8471ac1b50559e51,m3rd:8471ac1b50559e51 m1wx:2,m1wy:3
copym3m1:m1wd:8471ac1b50559e51,m3rd:8471ac1b50559e51 m1wx:2,m1wy:4
copym3m1:m1wd:d7ec1e9d402cbb82,m3rd:d7ec1e9d402cbb82 m1wx:2,m1wy:4
copym3m1:m1wd:d7ec1e9d402cbb82,m3rd:d7ec1e9d402cbb82 m1wx:3,m1wy:0
copym3m1:m1wd:c560158c3cd956ab,m3rd:c560158c3cd956ab m1wx:3,m1wy:0
copym3m1:m1wd:c560158c3cd956ab,m3rd:c560158c3cd956ab m1wx:3,m1wy:1
copym3m1:m1wd:3eaee6c9ea9e284f,m3rd:3eaee6c9ea9e284f m1wx:3,m1wy:1
copym3m1:m1wd:3eaee6c9ea9e284f,m3rd:3eaee6c9ea9e284f m1wx:3,m1wy:2
copym3m1:m1wd:0e6f43c0ee9e5ca2,m3rd:0e6f43c0ee9e5ca2 m1wx:3,m1wy:2
copym3m1:m1wd:0e6f43c0ee9e5ca2,m3rd:0e6f43c0ee9e5ca2 m1wx:3,m1wy:3
copym3m1:m1wd:c2da8637620aa3cc,m3rd:c2da8637620aa3cc m1wx:3,m1wy:3
copym3m1:m1wd:c2da8637620aa3cc,m3rd:c2da8637620aa3cc m1wx:3,m1wy:4
copym3m1:m1wd:0abf43849ce17e75,m3rd:0abf43849ce17e75 m1wx:3,m1wy:4
copym3m1:m1wd:0abf43849ce17e75,m3rd:0abf43849ce17e75 m1wx:4,m1wy:0
copym3m1:m1wd:59b49524206fa686,m3rd:59b49524206fa686 m1wx:4,m1wy:0
copym3m1:m1wd:59b49524206fa686,m3rd:59b49524206fa686 m1wx:4,m1wy:1
copym3m1:m1wd:43384601d2399d91,m3rd:43384601d2399d91 m1wx:4,m1wy:1
copym3m1:m1wd:43384601d2399d91,m3rd:43384601d2399d91 m1wx:4,m1wy:2
copym3m1:m1wd:763997be5cc7d345,m3rd:763997be5cc7d345 m1wx:4,m1wy:2
copym3m1:m1wd:763997be5cc7d345,m3rd:763997be5cc7d345 m1wx:4,m1wy:3
copym3m1:m1wd:f0b8c3282449c4e2,m3rd:f0b8c3282449c4e2 m1wx:4,m1wy:3
copym3m1:m1wd:f0b8c3282449c4e2,m3rd:f0b8c3282449c4e2 m1wx:4,m1wy:4
copym3m1:m1wd:95b13173e1a471fe,m3rd:95b13173e1a471fe m1wx:4,m1wy:4
D:1eeed86fad843227,m3wy:1,m3wx:0
D:4a8affc88208bd16,m3wy:1,m3wx:0
D:4a8affc88208bd16,m3wy:1,m3wx:1
D:2a803b317af9406c,m3wy:1,m3wx:1
D:2a803b317af9406c,m3wy:1,m3wx:2
D:5a13cee9f8df8fd2,m3wy:1,m3wx:2
D:5a13cee9f8df8fd2,m3wy:1,m3wx:3
D:8314540ad9c5eda4,m3wy:1,m3wx:3
D:8314540ad9c5eda4,m3wy:1,m3wx:4
D:2970e57c0f3523c5,m3wy:1,m3wx:4
donetheta
donetheta
round: 4cmx[round]:000000000000808b,r1_d:9488c05901980582,m3wd:9488c05901988509,m3wx;0,m3wy;0
round: 4cmx[round]:000000000000808b,r1_d:37e9c8aed66c30a0,m3wd:37e9c8aed66cb02b,m3wx;0,m3wy;0
copym3m1:m1wd:37e9c8aed66cb02b,m3rd:37e9c8aed66cb02b m1wx:0,m1wy:0
copym3m1:m1wd:37e9c8aed66cb02b,m3rd:37e9c8aed66cb02b m1wx:0,m1wy:1
copym3m1:m1wd:ee73ee90fc771d4d,m3rd:ee73ee90fc771d4d m1wx:0,m1wy:1
copym3m1:m1wd:ee73ee90fc771d4d,m3rd:ee73ee90fc771d4d m1wx:0,m1wy:2
copym3m1:m1wd:2283b408ea444723,m3rd:2283b408ea444723 m1wx:0,m1wy:2
copym3m1:m1wd:2283b408ea444723,m3rd:2283b408ea444723 m1wx:0,m1wy:3
copym3m1:m1wd:8c5eb4a017d45bb2,m3rd:8c5eb4a017d45bb2 m1wx:0,m1wy:3
copym3m1:m1wd:8c5eb4a017d45bb2,m3rd:8c5eb4a017d45bb2 m1wx:0,m1wy:4
copym3m1:m1wd:61561d807c47aa7d,m3rd:61561d807c47aa7d m1wx:0,m1wy:4
copym3m1:m1wd:61561d807c47aa7d,m3rd:61561d807c47aa7d m1wx:1,m1wy:0
copym3m1:m1wd:3b4b47e86240697e,m3rd:3b4b47e86240697e m1wx:1,m1wy:0
copym3m1:m1wd:3b4b47e86240697e,m3rd:3b4b47e86240697e m1wx:1,m1wy:1
copym3m1:m1wd:37d5d8dfc0cca68a,m3rd:37d5d8dfc0cca68a m1wx:1,m1wy:1
copym3m1:m1wd:37d5d8dfc0cca68a,m3rd:37d5d8dfc0cca68a m1wx:1,m1wy:2
copym3m1:m1wd:e4e2097af10b45e0,m3rd:e4e2097af10b45e0 m1wx:1,m1wy:2
copym3m1:m1wd:e4e2097af10b45e0,m3rd:e4e2097af10b45e0 m1wx:1,m1wy:3
copym3m1:m1wd:225a8d00f1ad82cb,m3rd:225a8d00f1ad82cb m1wx:1,m1wy:3
copym3m1:m1wd:225a8d00f1ad82cb,m3rd:225a8d00f1ad82cb m1wx:1,m1wy:4
copym3m1:m1wd:f35b540928db3720,m3rd:f35b540928db3720 m1wx:1,m1wy:4
copym3m1:m1wd:f35b540928db3720,m3rd:f35b540928db3720 m1wx:2,m1wy:0
copym3m1:m1wd:2f6f45f055541860,m3rd:2f6f45f055541860 m1wx:2,m1wy:0
copym3m1:m1wd:2f6f45f055541860,m3rd:2f6f45f055541860 m1wx:2,m1wy:1
copym3m1:m1wd:87b1d7e0da14f9dd,m3rd:87b1d7e0da14f9dd m1wx:2,m1wy:1
